03-assignment_-crutchfield
…
4. Create a graph that shows average levels of monthly income by field of education, gender and job level (scale of 1-5, highest ranked employees are 5)

## More Variables: faceting

We can continue this logic with three variables. Now were going to summarize and arrange positions by field of education, gender and job level and then split the graphic by job level.

at_sum<-at%>%
  group_by(EducationField,Gender,JobLevel)%>%
  summarize(Monthly_Income_Avg=mean(MonthlyIncome))%>%
  arrange(-Monthly_Income_Avg)

at_sum

## # A tibble: 58 x 4
## # Groups:   EducationField, Gender [12]
##    EducationField   Gender JobLevel Monthly_Income_Avg
##    <chr>            <chr>     <int>              <dbl>
##  1 Technical Degree Female        5             19744 
##  2 Other            Male          5             19443.
##  3 Human Resources  Male          5             19322 
##  4 Medical          Male          5             19251.
##  5 Technical Degree Male          5             19232 
##  6 Life Sciences    Male          5             19232.
##  7 Life Sciences    Female        5             19143 
##  8 Marketing        Female        5             19101.
##  9 Other            Female        5             19094 
## 10 Medical          Female        5             19032.
## #  with 48 more rows
…
