10_assignment_crutchfield
…
2. Using a random partition, create 100 separate cross validations of your linear model predicting reading scores as a function of at least two covari- ates. Provide a summary table or graphic of the RMSEs from this cross validation.

els_cv<-els%>%
crossv_mc(n=100,test=.2) 
els_cv

## # A tibble: 100 x 3
##    train      test       .id  
##    <list>     <list>     <chr>
##  1 <resample> <resample> 001  
##  2 <resample> <resample> 002  
##  3 <resample> <resample> 003  
##  4 <resample> <resample> 004  
##  5 <resample> <resample> 005  
##  6 <resample> <resample> 006  
##  7 <resample> <resample> 007  
##  8 <resample> <resample> 008  
##  9 <resample> <resample> 009  
## 10 <resample> <resample> 010  
## #  with 90 more rows

mod1_rmse_cv<-els_cv %>% 
  mutate(train = map(train, as_tibble)) %>% ## Convert to tibbles
  mutate(model = map(train, ~ lm(mod1_formula, data = .)))%>%
  mutate(rmse = map2_dbl(model, test, rmse))%>% 
  select(.id, rmse) ## pull just id and rmse 

mod1_rmse_cv

## # A tibble: 100 x 2
##    .id    rmse
##    <chr> <dbl>
##  1 001    9.09
##  2 002    8.99
##  3 003    9.14
##  4 004    9.10
##  5 005    9.25
##  6 006    8.93
##  7 007    9.13
##  8 008    9.30
##  9 009    9.05
## 10 010    9.21
## #  with 90 more rows
…
